graph LR
a["🌍"]-->b["Raw Data is<br>Collected"]
b-->c["Data is<br>Processed"]
c-->d["Clean<br>Data"]
d-->e["Exploratory<br>Data<br>Analysis"]
e-->f
d-->f["Machine<br>Learning<br>Algorithms<br>Statistical<br>Models"]
d-->g["Communicate<br>________________<br>Visualizations"<br>________________<br>Report<br>Findings]
f-->g
g-->h["Make Decisions"]
f-->i["Build Data<br>Product"]
i-.->a

classDef white fill:transparent, stroke: transparent;
classDef whiteplus fill:transparent, stroke: transparent, font-size:5em;
class a whiteplus;
class h white;
