<svg id="mermaid-1536525362227" width="100%" xmlns="http://www.w3.org/2000/svg" style="max-width: 334.58203125px;" viewBox="0 0 334.58203125 921"><style>


#mermaid-1536525362227 .label {
  font-family: 'trebuchet ms', verdana, arial;
  color: #333; }

#mermaid-1536525362227 .node rect,
#mermaid-1536525362227 .node circle,
#mermaid-1536525362227 .node ellipse,
#mermaid-1536525362227 .node polygon {
  fill: #ECECFF;
  stroke: #9370DB;
  stroke-width: 1px; }

#mermaid-1536525362227 .node.clickable {
  cursor: pointer; }

#mermaid-1536525362227 .arrowheadPath {
  fill: #333333; }

#mermaid-1536525362227 .edgePath .path {
  stroke: #333333;
  stroke-width: 1.5px; }

#mermaid-1536525362227 .edgeLabel {
  background-color: #e8e8e8; }

#mermaid-1536525362227 .cluster rect {
  fill: #ffffde !important;
  stroke: #aaaa33 !important;
  stroke-width: 1px !important; }

#mermaid-1536525362227 .cluster text {
  fill: #333; }

#mermaid-1536525362227 div.mermaidTooltip {
  position: absolute;
  text-align: center;
  max-width: 200px;
  padding: 2px;
  font-family: 'trebuchet ms', verdana, arial;
  font-size: 12px;
  background: #ffffde;
  border: 1px solid #aaaa33;
  border-radius: 2px;
  pointer-events: none;
  z-index: 100; }

#mermaid-1536525362227 .actor {
  stroke: #CCCCFF;
  fill: #ECECFF; }

#mermaid-1536525362227 text.actor {
  fill: black;
  stroke: none; }

#mermaid-1536525362227 .actor-line {
  stroke: grey; }

#mermaid-1536525362227 .messageLine0 {
  stroke-width: 1.5;
  stroke-dasharray: '2 2';
  marker-end: 'url(#arrowhead)';
  stroke: #333; }

#mermaid-1536525362227 .messageLine1 {
  stroke-width: 1.5;
  stroke-dasharray: '2 2';
  stroke: #333; }

#mermaid-1536525362227 #arrowhead {
  fill: #333; }

#mermaid-1536525362227 #crosshead path {
  fill: #333 !important;
  stroke: #333 !important; }

#mermaid-1536525362227 .messageText {
  fill: #333;
  stroke: none; }

#mermaid-1536525362227 .labelBox {
  stroke: #CCCCFF;
  fill: #ECECFF; }

#mermaid-1536525362227 .labelText {
  fill: black;
  stroke: none; }

#mermaid-1536525362227 .loopText {
  fill: black;
  stroke: none; }

#mermaid-1536525362227 .loopLine {
  stroke-width: 2;
  stroke-dasharray: '2 2';
  marker-end: 'url(#arrowhead)';
  stroke: #CCCCFF; }

#mermaid-1536525362227 .note {
  stroke: #aaaa33;
  fill: #fff5ad; }

#mermaid-1536525362227 .noteText {
  fill: black;
  stroke: none;
  font-family: 'trebuchet ms', verdana, arial;
  font-size: 14px; }


#mermaid-1536525362227 .section {
  stroke: none;
  opacity: 0.2; }

#mermaid-1536525362227 .section0 {
  fill: rgba(102, 102, 255, 0.49); }

#mermaid-1536525362227 .section2 {
  fill: #fff400; }

#mermaid-1536525362227 .section1,
#mermaid-1536525362227 .section3 {
  fill: white;
  opacity: 0.2; }

#mermaid-1536525362227 .sectionTitle0 {
  fill: #333; }

#mermaid-1536525362227 .sectionTitle1 {
  fill: #333; }

#mermaid-1536525362227 .sectionTitle2 {
  fill: #333; }

#mermaid-1536525362227 .sectionTitle3 {
  fill: #333; }

#mermaid-1536525362227 .sectionTitle {
  text-anchor: start;
  font-size: 11px;
  text-height: 14px; }


#mermaid-1536525362227 .grid .tick {
  stroke: lightgrey;
  opacity: 0.3;
  shape-rendering: crispEdges; }

#mermaid-1536525362227 .grid path {
  stroke-width: 0; }


#mermaid-1536525362227 .today {
  fill: none;
  stroke: red;
  stroke-width: 2px; }



#mermaid-1536525362227 .task {
  stroke-width: 2; }

#mermaid-1536525362227 .taskText {
  text-anchor: middle;
  font-size: 11px; }

#mermaid-1536525362227 .taskTextOutsideRight {
  fill: black;
  text-anchor: start;
  font-size: 11px; }

#mermaid-1536525362227 .taskTextOutsideLeft {
  fill: black;
  text-anchor: end;
  font-size: 11px; }


#mermaid-1536525362227 .taskText0,
#mermaid-1536525362227 .taskText1,
#mermaid-1536525362227 .taskText2,
#mermaid-1536525362227 .taskText3 {
  fill: white; }

#mermaid-1536525362227 .task0,
#mermaid-1536525362227 .task1,
#mermaid-1536525362227 .task2,
#mermaid-1536525362227 .task3 {
  fill: #8a90dd;
  stroke: #534fbc; }

#mermaid-1536525362227 .taskTextOutside0,
#mermaid-1536525362227 .taskTextOutside2 {
  fill: black; }

#mermaid-1536525362227 .taskTextOutside1,
#mermaid-1536525362227 .taskTextOutside3 {
  fill: black; }


#mermaid-1536525362227 .active0,
#mermaid-1536525362227 .active1,
#mermaid-1536525362227 .active2,
#mermaid-1536525362227 .active3 {
  fill: #bfc7ff;
  stroke: #534fbc; }

#mermaid-1536525362227 .activeText0,
#mermaid-1536525362227 .activeText1,
#mermaid-1536525362227 .activeText2,
#mermaid-1536525362227 .activeText3 {
  fill: black !important; }


#mermaid-1536525362227 .done0,
#mermaid-1536525362227 .done1,
#mermaid-1536525362227 .done2,
#mermaid-1536525362227 .done3 {
  stroke: grey;
  fill: lightgrey;
  stroke-width: 2; }

#mermaid-1536525362227 .doneText0,
#mermaid-1536525362227 .doneText1,
#mermaid-1536525362227 .doneText2,
#mermaid-1536525362227 .doneText3 {
  fill: black !important; }


#mermaid-1536525362227 .crit0,
#mermaid-1536525362227 .crit1,
#mermaid-1536525362227 .crit2,
#mermaid-1536525362227 .crit3 {
  stroke: #ff8888;
  fill: red;
  stroke-width: 2; }

#mermaid-1536525362227 .activeCrit0,
#mermaid-1536525362227 .activeCrit1,
#mermaid-1536525362227 .activeCrit2,
#mermaid-1536525362227 .activeCrit3 {
  stroke: #ff8888;
  fill: #bfc7ff;
  stroke-width: 2; }

#mermaid-1536525362227 .doneCrit0,
#mermaid-1536525362227 .doneCrit1,
#mermaid-1536525362227 .doneCrit2,
#mermaid-1536525362227 .doneCrit3 {
  stroke: #ff8888;
  fill: lightgrey;
  stroke-width: 2;
  cursor: pointer;
  shape-rendering: crispEdges; }

#mermaid-1536525362227 .doneCritText0,
#mermaid-1536525362227 .doneCritText1,
#mermaid-1536525362227 .doneCritText2,
#mermaid-1536525362227 .doneCritText3 {
  fill: black !important; }

#mermaid-1536525362227 .activeCritText0,
#mermaid-1536525362227 .activeCritText1,
#mermaid-1536525362227 .activeCritText2,
#mermaid-1536525362227 .activeCritText3 {
  fill: black !important; }

#mermaid-1536525362227 .titleText {
  text-anchor: middle;
  font-size: 18px;
  fill: black; }

#mermaid-1536525362227 g.classGroup text {
  fill: #9370DB;
  stroke: none;
  font-family: 'trebuchet ms', verdana, arial;
  font-size: 10px; }

#mermaid-1536525362227 g.classGroup rect {
  fill: #ECECFF;
  stroke: #9370DB; }

#mermaid-1536525362227 g.classGroup line {
  stroke: #9370DB;
  stroke-width: 1; }

#mermaid-1536525362227 .classLabel .box {
  stroke: none;
  stroke-width: 0;
  fill: #ECECFF;
  opacity: 0.5; }

#mermaid-1536525362227 .classLabel .label {
  fill: #9370DB;
  font-size: 10px; }

#mermaid-1536525362227 .relation {
  stroke: #9370DB;
  stroke-width: 1;
  fill: none; }

#mermaid-1536525362227 #compositionStart {
  fill: #9370DB;
  stroke: #9370DB;
  stroke-width: 1; }

#mermaid-1536525362227 #compositionEnd {
  fill: #9370DB;
  stroke: #9370DB;
  stroke-width: 1; }

#mermaid-1536525362227 #aggregationStart {
  fill: #ECECFF;
  stroke: #9370DB;
  stroke-width: 1; }

#mermaid-1536525362227 #aggregationEnd {
  fill: #ECECFF;
  stroke: #9370DB;
  stroke-width: 1; }

#mermaid-1536525362227 #dependencyStart {
  fill: #9370DB;
  stroke: #9370DB;
  stroke-width: 1; }

#mermaid-1536525362227 #dependencyEnd {
  fill: #9370DB;
  stroke: #9370DB;
  stroke-width: 1; }

#mermaid-1536525362227 #extensionStart {
  fill: #9370DB;
  stroke: #9370DB;
  stroke-width: 1; }

#mermaid-1536525362227 #extensionEnd {
  fill: #9370DB;
  stroke: #9370DB;
  stroke-width: 1; }

#mermaid-1536525362227 .commit-id,
#mermaid-1536525362227 .commit-msg,
#mermaid-1536525362227 .branch-label {
  fill: lightgrey;
  color: lightgrey; }

#mermaid-1536525362227 .basic &gt; * { text-align:center !important;  fill:#FFF !important; stroke:#333 !important; stroke-width:1px !important; font-family:Tuner !important; }</style><style>#mermaid-1536525362227 {
    color: rgb(157, 165, 180);
    font: normal normal normal normal 18px / 25.7143px system-ui;
  }</style><g transform="translate(-12, -12)"><g class="output"><g class="clusters"><g class="cluster" id="subGraph0" transform="translate(178.677734375,770)" style="opacity: 1;"><rect width="317.35546875" height="310" x="-158.677734375" y="-155"/><g class="label"><g transform="translate(0,0)"><foreignObject width="0" height="0"><div xmlns="http://www.w3.org/1999/xhtml" style="display: inline-block; white-space: nowrap;"></div></foreignObject></g></g><text x="0" y="-141" fill="black" stroke="none" id="mermaid-1536525362227Text" style="text-anchor: middle;">Repeat for n levels</text></g></g><g class="edgePaths"><g class="edgePath" style="opacity: 1;"><path class="path" d="M206.26953125,65L206.26953125,90L206.26953125,115" marker-end="url(#arrowhead10015)" style="fill:none"/><defs><marker id="arrowhead10015" viewBox="0 0 10 10" refX="9" refY="5" markerUnits="strokeWidth" markerWidth="8" markerHeight="6" orient="auto"><path d="M 0 0 L 10 5 L 0 10 z" class="arrowheadPath" style="stroke-width: 1; stroke-dasharray: 1, 0;"/></marker></defs></g><g class="edgePath" style="opacity: 1;"><path class="path" d="M206.26953125,160L206.26953125,185L206.26953125,210" marker-end="url(#arrowhead10016)" style="fill:none"/><defs><marker id="arrowhead10016" viewBox="0 0 10 10" refX="9" refY="5" markerUnits="strokeWidth" markerWidth="8" markerHeight="6" orient="auto"><path d="M 0 0 L 10 5 L 0 10 z" class="arrowheadPath" style="stroke-width: 1; stroke-dasharray: 1, 0;"/></marker></defs></g><g class="edgePath" style="opacity: 1;"><path class="path" d="M176.85855263157896,255L144.1796875,280L144.1796875,305" marker-end="url(#arrowhead10017)" style="fill:none"/><defs><marker id="arrowhead10017" viewBox="0 0 10 10" refX="9" refY="5" markerUnits="strokeWidth" markerWidth="8" markerHeight="6" orient="auto"><path d="M 0 0 L 10 5 L 0 10 z" class="arrowheadPath" style="stroke-width: 1; stroke-dasharray: 1, 0;"/></marker></defs></g><g class="edgePath" style="opacity: 1;"><path class="path" d="M144.1796875,350L144.1796875,375L144.1796875,400" marker-end="url(#arrowhead10018)" style="fill:none"/><defs><marker id="arrowhead10018" viewBox="0 0 10 10" refX="9" refY="5" markerUnits="strokeWidth" markerWidth="8" markerHeight="6" orient="auto"><path d="M 0 0 L 10 5 L 0 10 z" class="arrowheadPath" style="stroke-width: 1; stroke-dasharray: 1, 0;"/></marker></defs></g><g class="edgePath" style="opacity: 1;"><path class="path" d="M144.1796875,470L144.1796875,495L176.85855263157896,520" marker-end="url(#arrowhead10019)" style="fill:none"/><defs><marker id="arrowhead10019" viewBox="0 0 10 10" refX="9" refY="5" markerUnits="strokeWidth" markerWidth="8" markerHeight="6" orient="auto"><path d="M 0 0 L 10 5 L 0 10 z" class="arrowheadPath" style="stroke-width: 1; stroke-dasharray: 1, 0;"/></marker></defs></g><g class="edgePath" style="opacity: 1;"><path class="path" d="M206.26953125,565L206.26953125,590L206.26953125,615L206.26953125,640" marker-end="url(#arrowhead10020)" style="fill:none"/><defs><marker id="arrowhead10020" viewBox="0 0 10 10" refX="9" refY="5" markerUnits="strokeWidth" markerWidth="8" markerHeight="6" orient="auto"><path d="M 0 0 L 10 5 L 0 10 z" class="arrowheadPath" style="stroke-width: 1; stroke-dasharray: 1, 0;"/></marker></defs></g><g class="edgePath" style="opacity: 1;"><path class="path" d="M176.85855263157896,685L144.1796875,710L144.1796875,735" marker-end="url(#arrowhead10021)" style="fill:none"/><defs><marker id="arrowhead10021" viewBox="0 0 10 10" refX="9" refY="5" markerUnits="strokeWidth" markerWidth="8" markerHeight="6" orient="auto"><path d="M 0 0 L 10 5 L 0 10 z" class="arrowheadPath" style="stroke-width: 1; stroke-dasharray: 1, 0;"/></marker></defs></g><g class="edgePath" style="opacity: 1;"><path class="path" d="M144.1796875,780L144.1796875,805L170.05045572916666,830" marker-end="url(#arrowhead10022)" style="fill:none"/><defs><marker id="arrowhead10022" viewBox="0 0 10 10" refX="9" refY="5" markerUnits="strokeWidth" markerWidth="8" markerHeight="6" orient="auto"><path d="M 0 0 L 10 5 L 0 10 z" class="arrowheadPath" style="stroke-width: 1; stroke-dasharray: 1, 0;"/></marker></defs></g><g class="edgePath" style="opacity: 1;"><path class="path" d="M242.48860677083334,830L268.359375,805L268.359375,757.5L268.359375,710L235.68050986842104,685" marker-end="url(#arrowhead10023)" style="fill:none"/><defs><marker id="arrowhead10023" viewBox="0 0 10 10" refX="9" refY="5" markerUnits="strokeWidth" markerWidth="8" markerHeight="6" orient="auto"><path d="M 0 0 L 10 5 L 0 10 z" class="arrowheadPath" style="stroke-width: 1; stroke-dasharray: 1, 0;"/></marker></defs></g><g class="edgePath" style="opacity: 1;"><path class="path" d="M235.68050986842104,520L268.359375,495L268.359375,435L268.359375,375L268.359375,327.5L268.359375,280L235.68050986842104,255" marker-end="url(#arrowhead10024)" style="fill:none"/><defs><marker id="arrowhead10024" viewBox="0 0 10 10" refX="9" refY="5" markerUnits="strokeWidth" markerWidth="8" markerHeight="6" orient="auto"><path d="M 0 0 L 10 5 L 0 10 z" class="arrowheadPath" style="stroke-width: 1; stroke-dasharray: 1, 0;"/></marker></defs></g></g><g class="edgeLabels"><g class="edgeLabel" transform="" style="opacity: 1;"><g transform="translate(0,0)" class="label"><foreignObject width="0" height="0"><div xmlns="http://www.w3.org/1999/xhtml" style="display: inline-block; white-space: nowrap;"><span class="edgeLabel"></span></div></foreignObject></g></g><g class="edgeLabel" transform="" style="opacity: 1;"><g transform="translate(0,0)" class="label"><foreignObject width="0" height="0"><div xmlns="http://www.w3.org/1999/xhtml" style="display: inline-block; white-space: nowrap;"><span class="edgeLabel"></span></div></foreignObject></g></g><g class="edgeLabel" transform="" style="opacity: 1;"><g transform="translate(0,0)" class="label"><foreignObject width="0" height="0"><div xmlns="http://www.w3.org/1999/xhtml" style="display: inline-block; white-space: nowrap;"><span class="edgeLabel"></span></div></foreignObject></g></g><g class="edgeLabel" transform="" style="opacity: 1;"><g transform="translate(0,0)" class="label"><foreignObject width="0" height="0"><div xmlns="http://www.w3.org/1999/xhtml" style="display: inline-block; white-space: nowrap;"><span class="edgeLabel"></span></div></foreignObject></g></g><g class="edgeLabel" transform="" style="opacity: 1;"><g transform="translate(0,0)" class="label"><foreignObject width="0" height="0"><div xmlns="http://www.w3.org/1999/xhtml" style="display: inline-block; white-space: nowrap;"><span class="edgeLabel"></span></div></foreignObject></g></g><g class="edgeLabel" transform="" style="opacity: 1;"><g transform="translate(0,0)" class="label"><foreignObject width="0" height="0"><div xmlns="http://www.w3.org/1999/xhtml" style="display: inline-block; white-space: nowrap;"><span class="edgeLabel"></span></div></foreignObject></g></g><g class="edgeLabel" transform="" style="opacity: 1;"><g transform="translate(0,0)" class="label"><foreignObject width="0" height="0"><div xmlns="http://www.w3.org/1999/xhtml" style="display: inline-block; white-space: nowrap;"><span class="edgeLabel"></span></div></foreignObject></g></g><g class="edgeLabel" transform="" style="opacity: 1;"><g transform="translate(0,0)" class="label"><foreignObject width="0" height="0"><div xmlns="http://www.w3.org/1999/xhtml" style="display: inline-block; white-space: nowrap;"><span class="edgeLabel"></span></div></foreignObject></g></g><g class="edgeLabel" transform="" style="opacity: 1;"><g transform="translate(0,0)" class="label"><foreignObject width="0" height="0"><div xmlns="http://www.w3.org/1999/xhtml" style="display: inline-block; white-space: nowrap;"><span class="edgeLabel"></span></div></foreignObject></g></g><g class="edgeLabel" transform="" style="opacity: 1;"><g transform="translate(0,0)" class="label"><foreignObject width="0" height="0"><div xmlns="http://www.w3.org/1999/xhtml" style="display: inline-block; white-space: nowrap;"><span class="edgeLabel"></span></div></foreignObject></g></g></g><g class="nodes"><g class="node basic" id="for_each2" transform="translate(206.26953125,662.5)" style="opacity: 1;"><rect rx="0" ry="0" x="-50.8359375" y="-22.5" width="101.671875" height="45"/><g class="label" transform="translate(0,0)"><g transform="translate(-40.8359375,-12.5)"><foreignObject width="81.671875" height="25"><div xmlns="http://www.w3.org/1999/xhtml" style="display: inline-block; white-space: nowrap;">for each</div></foreignObject></g></g></g><g class="node basic" id="add2" transform="translate(206.26953125,865)" style="opacity: 1;"><rect rx="0" ry="0" x="-82.9921875" y="-35" width="165.984375" height="70"/><g class="label" transform="translate(0,0)"><g transform="translate(-72.9921875,-25)"><foreignObject width="145.984375" height="50"><div xmlns="http://www.w3.org/1999/xhtml" style="display: inline-block; white-space: nowrap;">add video data<br />to graph</div></foreignObject></g></g></g><g class="node basic" id="load2" transform="translate(144.1796875,757.5)" style="opacity: 1;"><rect rx="0" ry="0" x="-89.1796875" y="-22.5" width="178.359375" height="45"/><g class="label" transform="translate(0,0)"><g transform="translate(-79.1796875,-12.5)"><foreignObject width="158.359375" height="25"><div xmlns="http://www.w3.org/1999/xhtml" style="display: inline-block; white-space: nowrap;">Load video page</div></foreignObject></g></g></g><g class="node" id="start" transform="translate(206.26953125,42.5)" style="opacity: 1;"><rect rx="5" ry="5" x="-122.1640625" y="-22.5" width="244.328125" height="45" style="fill:#FFF; text:#F00; stroke-width:1px; stroke:#f00; font-family:Tuner;"/><g class="label" transform="translate(0,0)"><g transform="translate(-112.1640625,-12.5)"><foreignObject width="224.328125" height="25"><div xmlns="http://www.w3.org/1999/xhtml" style="display: inline-block; white-space: nowrap;">Start on Youtube homepage</div></foreignObject></g></g></g><g class="node basic" id="list" transform="translate(206.26953125,137.5)" style="opacity: 1;"><rect rx="0" ry="0" x="-132.3125" y="-22.5" width="264.625" height="45"/><g class="label" transform="translate(0,0)"><g transform="translate(-122.3125,-12.5)"><foreignObject width="244.625" height="25"><div xmlns="http://www.w3.org/1999/xhtml" style="display: inline-block; white-space: nowrap;">List recommended videos</div></foreignObject></g></g></g><g class="node basic" id="list2" transform="translate(206.26953125,542.5)" style="opacity: 1;"><rect rx="0" ry="0" x="-132.3125" y="-22.5" width="264.625" height="45"/><g class="label" transform="translate(0,0)"><g transform="translate(-122.3125,-12.5)"><foreignObject width="244.625" height="25"><div xmlns="http://www.w3.org/1999/xhtml" style="display: inline-block; white-space: nowrap;">List recommended videos</div></foreignObject></g></g></g><g class="node basic" id="for_each" transform="translate(206.26953125,232.5)" style="opacity: 1;"><rect rx="0" ry="0" x="-50.8359375" y="-22.5" width="101.671875" height="45"/><g class="label" transform="translate(0,0)"><g transform="translate(-40.8359375,-12.5)"><foreignObject width="81.671875" height="25"><div xmlns="http://www.w3.org/1999/xhtml" style="display: inline-block; white-space: nowrap;">for each</div></foreignObject></g></g></g><g class="node basic" id="load" transform="translate(144.1796875,327.5)" style="opacity: 1;"><rect rx="0" ry="0" x="-89.1796875" y="-22.5" width="178.359375" height="45"/><g class="label" transform="translate(0,0)"><g transform="translate(-79.1796875,-12.5)"><foreignObject width="158.359375" height="25"><div xmlns="http://www.w3.org/1999/xhtml" style="display: inline-block; white-space: nowrap;">Load video page</div></foreignObject></g></g></g><g class="node basic" id="add" transform="translate(144.1796875,435)" style="opacity: 1;"><rect rx="0" ry="0" x="-82.9921875" y="-35" width="165.984375" height="70"/><g class="label" transform="translate(0,0)"><g transform="translate(-72.9921875,-25)"><foreignObject width="145.984375" height="50"><div xmlns="http://www.w3.org/1999/xhtml" style="display: inline-block; white-space: nowrap;">add video data<br />to graph</div></foreignObject></g></g></g></g></g></g><style type="text/css">.label { color: #000000 !important; } </style></svg>